﻿{
	"language": {
		"BillToAddress": "Rechnungsadresse",
		"BuyerComment": "Kommentar:",
		"Currency": "Währung:",
		"DownpaymentAmount": "Vorauszahlung",
		"Email": "E-Mail:",
		"Fax": "Fax:",
		"ItemDescription": "Bezeichnung",
		"ItemLineNumber": "Position",
		"ItemNetAmount": "Nettobetrag",
		"ItemNumber": "Lieferantenreferenz",
		"ItemQuantity": "Menge",
		"ItemRequestedDeliveryDate": "Lieferung",
		"ItemShipToAddress": "Lieferadresse",
		"ItemUnitOfMeasure": "Einheit",
		"ItemUnitPrice": "Einzelpreis",
		"ItemVAT": "USt. (%)",
		"NoteHeader1": "Bestellnummer bitte bei jeder Korrespondenz angeben",
		"MultiShipToNoteHeader": "Die gewünschten Lieferadressen sind auf Artikelebene angegeben.",
		"OrderDate": "Datum:",
		"OrderNumber": "Bestellnummer:",
		"Page": "Seite",
		"PaymentMethod": "Zahlweg:",
		"PaymentTerms": "Zahlungsbedingungen:",
		"PeriodStart": "Von:",
		"PeriodEnd": "Bis:",
		"Phone": "Telefon:",
		"PurchaseOrder": "BESTELLUNG",
		"Revised": "Neu",
		"RevisionDate": "Geändert am:",
		"ShipToAddress": "Lieferadresse",
		"ShipToContact": "Kontakt:",
		"ShipToEmail": "E-Mail:",
		"ShipToPhone": "Telefon:",
		"SiretNumber": "SIRET-Nummer:",
		"Supplier": "Lieferant",
		"Taxes": "Umsatzsteuer",
		"TaxSummaryNetAmount": "Nettobetrag",
		"TaxSummaryTaxAmount": "USt.-Betrag",
		"TaxSummaryVAT": "USt. (%)",
		"TotalAmount": "Gesamt brutto",
		"TotalNetAmount": "Summe netto",
		"TotalNetAmountRemaining": "Rechnungsbetrag",
		"ValidityEnd": "Gültig bis:",
		"ValidityStart": "Gültig vom:",
		"VatNumber": "USt.-Nr.:"
	}
}