﻿{
	"language": {
		"BillToAddress": "Indirizzo di fatturazione",
		"BuyerComment": "Commento:",
		"Currency": "Valuta:",
		"DownpaymentAmount": "Anticipo",
		"Email": "E-mail:",
		"Fax": "Fax:",
		"ItemDescription": "Nome",
		"ItemLineNumber": "Linea",
		"ItemNetAmount": "Importo netto",
		"ItemNumber": "Riferimento fornitore",
		"ItemQuantity": "Quantità",
		"ItemRequestedDeliveryDate": "Consegna",
		"ItemShipToAddress": "Indirizzo di consegna",
		"ItemUnitOfMeasure": "Unità",
		"ItemUnitPrice": "Prezzo u.",
		"ItemVAT": "IVA (%)",
		"NoteHeader1": "Indicare il numero dell'ordine in ogni corrispondenza",
		"MultiShipToNoteHeader": "Gli indirizzi di consegna desiderati sono indicati a livello di articolo.",
		"OrderDate": "Data:",
		"OrderNumber": "Numero ordine:",
		"Page": "Pagina",
		"PaymentMethod": "Metodo pagamento:",
		"PaymentTerms": "Cond. pagamento:",
		"PeriodStart": "Dal:",
		"PeriodEnd": "Al:",
		"Phone": "Telefono:",
		"PurchaseOrder": "ORDINE",
		"Revised": "Nuovo",
		"RevisionDate": "Modificato il:",
		"ShipToAddress": "Indirizzo di spedizione",
		"ShipToContact": "Contatto:",
		"ShipToEmail": "E-mail:",
		"ShipToPhone": "Telefono:",
		"SiretNumber": "Numero SIRET:",
		"Supplier": "Fornitore",
		"Taxes": "IVA",
		"TaxSummaryNetAmount": "Importo netto",
		"TaxSummaryTaxAmount": "Importo IVA",
		"TaxSummaryVAT": "IVA (%)",
		"TotalAmount": "Totale",
		"TotalNetAmount": "Imponibile",
		"TotalNetAmountRemaining": "Totale da pagare",
		"ValidityEnd": "Valido fino al:",
		"ValidityStart": "Valido dal:",
		"VatNumber": "Partita IVA:"
	}
}